﻿注册税务师管理暂行办法:2005/12/30:国家税务总局令第14号
中华人民共和国资源税暂行条例实施细则:2011/10/28:中华人民共和国财政部 国家税务总局令第66号
资源税暂行条例实施细则:2011/10/28:中华人民共和国财政部 国家税务总局令第66号
资源税实施细则:2011/10/28:中华人民共和国财政部 国家税务总局令第66号
中华人民共和国资源税暂行条例:2011/9/30:中华人民共和国国务院令第605号
资源税暂行条例:2011/9/30:中华人民共和国国务院令第605号
资源税条例:2011/9/30:中华人民共和国国务院令第605号
中华人民共和国注册会计师法:1993/10/31:中华人民共和国主席令第13号
注册会计师法:1993/10/31:中华人民共和国主席令第13号
中华人民共和国治安管理处罚法:2012/10/26:中华人民共和国主席令第67号
治安管理处罚法:2012/10/26:中华人民共和国主席令第67号
中华人民共和国增值税暂行条例:2008/11/10:中华人民共和国国务院令第538号
增值税暂行条例:2008/11/10:中华人民共和国国务院令第538号
增值税条例:2008/11/10:中华人民共和国国务院令第538号
中华人民共和国增值税暂行条例实施细则:2011/10/28:中华人民共和国财政部令第65号
增值税暂行条例实施细则:2011/10/28:中华人民共和国财政部令第65号
增值税实施细则:2011/10/28:中华人民共和国财政部令第65号
中华人民共和国营业税暂行条例:2008/11/10:中华人民共和国国务院令540号
营业税暂行条例:2008/11/10:中华人民共和国国务院令540号
营业税条例:2008/11/10:中华人民共和国国务院令540号
中华人民共和国营业税暂行条例实施细则:2011/10/28:中华人民共和国财政部令第65号
营业税暂行条例实施细则:2011/10/28:中华人民共和国财政部令第65号
营业税实施细则:2011/10/28:中华人民共和国财政部令第65号
中华人民共和国印花税暂行条例:1988/8/6:国务院令第11号
印花税暂行条例:1988/8/6:国务院令第11号
印花税条例:1988/8/6:国务院令第11号
中华人民共和国印花税暂行条例施行细则:1988/9/29:财税字[1988]255号
印花税暂行条例施行细则:1988/9/29:财税字[1988]255号
印花税施行细则:1988/9/29:财税字[1988]255号
中华人民共和国烟叶税暂行条例:2006/4/28:中华人民共和国国务院令第464号
烟叶税暂行条例:2006/4/28:中华人民共和国国务院令第464号
烟叶税条例:2006/4/28:中华人民共和国国务院令第464号
中华人民共和国刑法:2011/02/25:中华人民共和国主席令第41号
刑法:2011/02/25:中华人民共和国主席令第41号
中华人民共和国消费税暂行条例:2008/11/10:中华人民共和国国务院令539号
消费税暂行条例:2008/11/10:中华人民共和国国务院令539号
消费税例:2008/11/10:中华人民共和国国务院令539号
中华人民共和国消费税暂行条例实施细则:2008/12/15:财政部 国家税务总局第51号令
消费税暂行条例实施细则:2008/12/15:财政部 国家税务总局第51号令
消费税实施细则:2008/12/15:财政部 国家税务总局第51号令
中华人民共和国宪法:2004/3/14:第十届全国人民代表大会第二次会议修正
宪法:2004/3/14:第十届全国人民代表大会第二次会议修正
中华人民共和国物权法:2007/3/16:中华人民共和国主席令第62号
物权法:2007/3/16:中华人民共和国主席令第62号
中华人民共和国土地增值税暂行条例:1993/12/13:国务院令第138号
土地增值税暂行条例:1993/12/13:国务院令第138号
土地增值税条例:1993/12/13:国务院令第138号
中华人民共和国土地增值税暂行条例实施细则:1995/1/27:财法字[1955]6号
土地增值税暂行条例实施细则:1995/1/27:财法字[1955]6号
土地增值税实施细则:1995/1/27:财法字[1955]6号
中华人民共和国税收征收管理法实施细则:2002/9/7:国务院令第362号
税收征收管理法实施细则:2002/9/7:国务院令第362号
税收征管法实施细则:2002/9/7:国务院令第362号
征管法实施细则:2002/9/7:国务院令第362号
中华人民共和国税收征收管理法:2001/4/28:中华人民共和国主席令第49号
税收征收管理法:2001/4/28:中华人民共和国主席令第49号
税收征管法:2001/4/28:中华人民共和国主席令第49号
中华人民共和国审计法:2006/2/28:中华人民共和国主席令第48号
审计法:2006/2/28:中华人民共和国主席令第48号
中华人民共和国契税暂行条例:1997/7/7:国务院令第224号
契税暂行条例:1997/7/7:国务院令第224号
契税条例:1997/7/7:国务院令第224号
中华人民共和国企业所得税法实施条例:2007/12/6:国务院令第512号
企业所得税法实施条例:2007/12/6:国务院令第512号
中华人民共和国企业所得税法:2007/3/16:中华人民共和国主席令第63号
企业所得税法:2007/3/16:中华人民共和国主席令第63号
中华人民共和国立法法:2000/3/15:中华人民共和国主席令第31号
立法法:2000/3/15:中华人民共和国主席令第31号
中华人民共和国进出口关税条例:2003/11/23:国务院令第392号
进出口关税条例:2003/11/23:国务院令第392号
关税条例:2003/11/23:国务院令第392号
中华人民共和国会计法:1999/10/31:中华人民共和国主席令第24号
会计法:1999/10/31:中华人民共和国主席令第24号
中华人民共和国合伙企业登记管理办法:2007/5/9:中华人民共和国国务院令第497号
合伙企业登记管理办法:2007/5/9:中华人民共和国国务院令第497号
中华人民共和国行政许可法:2003/8/27:中华人民共和国主席令第7号
行政许可法:2003/8/27:中华人民共和国主席令第7号
中华人民共和国行政复议法:1999/4/29:中华人民共和国主席令第16号
行政复议法:1999/4/29:中华人民共和国主席令第16号
中华人民共和国行政处罚法:1996/3/17:中华人民共和国主席令第63号
行政处罚法:1996/3/17:中华人民共和国主席令第63号
中华人民共和国海关对免税商店及免税品监管办法:2005/11/28:海关总署令第132号
海关对免税商店及免税品监管办法:2005/11/28:海关总署令第132号
免税商店及免税品监管办法:2005/11/28:海关总署令第132号
中华人民共和国固定资产投资方向调节税暂行条例:1991/4/16:国务院令第82号
固定资产投资方向调节税暂行条例:1991/4/16:国务院令第82号
中华人民共和国公司法:2005/10/27:中华人民共和国主席令第42号
公司法:2005/10/27:中华人民共和国主席令第42号
中华人民共和国耕地占用税暂行条例实施细则:2008/2/26:中华人民共和国财政部 国家税务总局令第49号
耕地占用税暂行条例实施细则:2008/2/26:中华人民共和国财政部 国家税务总局令第49号
耕地占用税实施细则:2008/2/26:中华人民共和国财政部 国家税务总局令第49号
中华人民共和国耕地占用税暂行条例:2007/12/1:中华人民共和国国务院令第511号
耕地占用税暂行条例:2007/12/1:中华人民共和国国务院令第511号
耕地占用税条例:2007/12/1:中华人民共和国国务院令第511号
中华人民共和国个人所得税法实施条例:2011/7/19:中华人民共和国国务院令第600号
个人所得税法实施条例:2011/7/19:中华人民共和国国务院令第600号
中华人民共和国个人所得税法:2011/6/30:中华人民共和国主席令第48号
个人所得税法:2011/6/30:中华人民共和国主席令第48号
中华人民共和国房产税暂行条例:1986/9/15:国发〔1986〕90号
房产税暂行条例:1986/9/15:国发〔1986〕90号
房产税条例:1986/9/15:国发〔1986〕90号
中华人民共和国发票管理办法实施细则:2011/2/14:国家税务总局令第25号
发票管理办法实施细则:2011/2/14:国家税务总局令第25号
发票管理实施细则:2011/2/14:国家税务总局令第25号
中华人民共和国发票管理办法:2010/12/20:中华人民共和国国务院令第587号
发票管理办法:2010/12/20:中华人民共和国国务院令第587号
中华人民共和国对外合作开采陆上石油资源条例:2011/9/30:中华人民共和国国务院令第606号
对外合作开采陆上石油资源条例:2011/9/30:中华人民共和国国务院令第606号
中华人民共和国对外合作开采海洋石油资源条例:2011/9/30:中华人民共和国国务院令第607号
对外合作开采海洋石油资源条例:2011/9/30:中华人民共和国国务院令第607号
中华人民共和国城镇土地使用税暂行条例:2006/12/31:中华人民共和国国务院令第483号
城镇土地使用税暂行条例:2006/12/31:中华人民共和国国务院令第483号
城镇土地使用税条例:2006/12/31:中华人民共和国国务院令第483号
中华人民共和国城市维护建设税暂行条例:1985/2/8:国发〔1985〕19号
城市维护建设税暂行条例:1985/2/8:国发〔1985〕19号
城市维护建设税条例:1985/2/8:国发〔1985〕19号
中华人民共和国车辆购置税暂行条例:2000/10/22:中华人民共和国国务院令第294号
车辆购置税暂行条例:2000/10/22:中华人民共和国国务院令第294号
车辆购置税条例:2000/10/22:中华人民共和国国务院令第294号
中华人民共和国车船税暂行条例实施细则:2007/2/1:中华人民共和国财政部 国家税务总局令第46号
车船税暂行条例实施细则:2007/2/1:中华人民共和国财政部 国家税务总局令第46号
车船税实施细则:2007/2/1:中华人民共和国财政部 国家税务总局令第46号
中华人民共和国车船税暂行条例:2006/12/29:中华人民共和国国务院令第482号
车船税暂行条例:2006/12/29:中华人民共和国国务院令第482号
车船税条例:2006/12/29:中华人民共和国国务院令第482号
中华人民共和国车船税法实施条例:2011/12/5:中华人民共和国国务院令第611号
车船税法实施条例:2011/12/5:中华人民共和国国务院令第611号
中华人民共和国车船税法:2011/2/25:中华人民共和国主席令第43号
车船税法:2011/2/25:中华人民共和国主席令第43号
征收教育费附加的暂行规定:2005/8/20:中华人民共和国国务院令第448号
增值税一般纳税人资格认定管理办法:2010/2/10:国家税务总局令第22号
网络发票管理办法:2013/2/25:国家税务总局令第30号
税务行政复议规则:2010/2/10:国家税务总局令第21号
税务登记管理办法:2003/12/17:国家税务总局令第7号
税收执法督察规则:2013/2/25:国家税务总局令第29号
税收违法违纪行为处分规定:2012/6/6:监察部人力资源和社会保障部国家税务总局令第26号
税收违法行为检举管理办法:2011/2/12:国家税务总局令第24号
税收票证管理办法:2013/2/25:国家税务总局令第28号
税收规范性文件制定管理办法:2010/2/10:国家税务总局令第20号
社会保险费征缴暂行条例:1999/1/14:国务院令第259号
全国人民代表大会常务委员会关于惩治虚开、伪造和非法出售增值税专用发票犯罪:1995/10/30:中华人民共和国主席令第57号
欠税公告办法（试行）:2004/10/10:国家税务总局令第9号
企业财务会计报告条例:2000/6/21:中华人民共和国国务院令第287号
纳税担保试行办法:2005/5/24:国家税务总局令第11号
卷烟消费税计税价格信息采集和核定管理办法:2011/10/27:国家税务总局令第26号
检举纳税人税收违法行为奖励暂行办法:2007/1/13:国家税务总局 财政部令第18号
国家认定企业技术中心管理办法:2007/4/19:国家发展和改革委员会 科学技术部 财政部 海关总署 国家税务总局令第53号
个体工商户税收定期定额征收管理办法:2006/8/30:国家税务总局令第16号
个体工商户建账管理暂行办法:2006/12/15:国家税务总局令第17号
粉煤灰综合利用管理办法:2013/1/5:中华人民共和国国家发展和改革委员会 中华人民共和国科学技术部 中华人民共和国工业和信息化部 中华人民共和国财政部 中华人民共和国国土资源部 中华人民共和国环境保护部 中华人民共和国住房和城乡建设部 中华人民共和国交通运输部 国家税务总局 国家质量监督检验检疫总局令第19号
非居民承包工程作业和提供劳务税收管理暂行办法:2009/1/20:国家税务总局令第19号
对储蓄存款利息所得征收个人所得税的实施办法:2007/7/20:中华人民共和国国务院令第502号发布
电力产品增值税征收管理办法:2004/12/22:国家税务总局令第10号
抵税财物拍卖、变卖试行办法:2005/5/24:国家税务总局令第12号
成品油零售加油站增值税征收管理办法:2002/4/2:国家税务总局令第2号
车辆购置税征收管理办法:2005/11/15:国家税务总局令第15号
残疾人就业条例:2007/2/25:中华人民共和国国务院令第488号
